\relax 
\providecommand\hyper@newdestlabel[2]{}
\citation{Atzori:2010}
\FN@pp@footnotehinttrue 
\FN@pp@footnotehinttrue 
\@writefile{toc}{\contentsline {chapter}{\numberline {1}Introduction}{2}{chapter.1}}
\@writefile{lof}{\addvspace {10\p@ }}
\@writefile{lot}{\addvspace {10\p@ }}
\@writefile{loa}{\addvspace {10\p@ }}
\@writefile{toc}{\contentsline {section}{\numberline {1.1}Introduction}{2}{section.1.1}}
\@writefile{brf}{\backcite{Atzori:2010}{{2}{1.1}{section.1.1}}}
\citation{karel:2012}
\citation{Lauris:2013}
\@writefile{toc}{\contentsline {subsection}{\numberline {1.1.1}Motivation}{3}{subsection.1.1.1}}
\@writefile{brf}{\backcite{karel:2012}{{3}{1.1.1}{subsection.1.1.1}}}
\@writefile{brf}{\backcite{Lauris:2013}{{3}{1.1.1}{subsection.1.1.1}}}
\@writefile{toc}{\contentsline {subsection}{\numberline {1.1.2}Contributions}{4}{subsection.1.1.2}}
\@writefile{toc}{\contentsline {subsection}{\numberline {1.1.3}Outline}{4}{subsection.1.1.3}}
\FN@pp@footnotehinttrue 
\@setckpt{1_introduction/introduction}{
\setcounter{page}{6}
\setcounter{equation}{0}
\setcounter{enumi}{0}
\setcounter{enumii}{0}
\setcounter{enumiii}{0}
\setcounter{enumiv}{0}
\setcounter{footnote}{0}
\setcounter{mpfootnote}{0}
\setcounter{part}{0}
\setcounter{chapter}{1}
\setcounter{section}{1}
\setcounter{subsection}{3}
\setcounter{subsubsection}{0}
\setcounter{paragraph}{0}
\setcounter{subparagraph}{0}
\setcounter{figure}{0}
\setcounter{table}{0}
\setcounter{ContinuedFloat}{0}
\setcounter{pp@next@reset}{1}
\setcounter{@fnserial}{0}
\setcounter{NAT@ctr}{0}
\setcounter{Item}{0}
\setcounter{Hfootnote}{0}
\setcounter{bookmark@seq@number}{7}
\setcounter{parentequation}{0}
\setcounter{lstnumber}{1}
\setcounter{FancyVerbLine}{0}
\setcounter{float@type}{16}
\setcounter{listing}{0}
\setcounter{AlgoLine}{0}
\setcounter{algocfline}{0}
\setcounter{algocfproc}{0}
\setcounter{algocf}{0}
\setcounter{section@level}{2}
\setcounter{lstlisting}{0}
}
