\relax 
\providecommand\hyper@newdestlabel[2]{}
\citation{fa:data}
\citation{Lauris:2013}
\citation{fa:forecasting}
\citation{liwang}
\citation{Lauris:2013}
\FN@pp@footnotehinttrue 
\@writefile{toc}{\contentsline {chapter}{\numberline {4}Contributions}{26}{chapter.4}}
\@writefile{lof}{\addvspace {10\p@ }}
\@writefile{lot}{\addvspace {10\p@ }}
\@writefile{loa}{\addvspace {10\p@ }}
\@writefile{brf}{\backcite{fa:data}{{26}{4}{chapter.4}}}
\@writefile{brf}{\backcite{Lauris:2013}{{26}{4}{chapter.4}}}
\@writefile{brf}{\backcite{fa:forecasting}{{26}{4}{chapter.4}}}
\@writefile{brf}{\backcite{liwang}{{26}{4}{chapter.4}}}
\@writefile{toc}{\contentsline {section}{\numberline {4.1}General Architecture}{26}{section.4.1}}
\@writefile{toc}{\contentsline {subsection}{\numberline {4.1.1}Aggregator's Architecture}{26}{subsection.4.1.1}}
\@writefile{brf}{\backcite{Lauris:2013}{{26}{4.1.1}{subsection.4.1.1}}}
\@writefile{lof}{\contentsline {figure}{\numberline {4.1}{\ignorespaces Sequence Diagram of an Aggregator.\relax }}{28}{figure.caption.13}}
\newlabel{fig:seqdiaaggregator}{{4.1}{28}{Sequence Diagram of an Aggregator.\relax }{figure.caption.13}{}}
\@writefile{lof}{\contentsline {figure}{\numberline {4.2}{\ignorespaces Simple Artificial neuron.\relax }}{28}{figure.caption.14}}
\newlabel{fig:simpleneuron}{{4.2}{28}{Simple Artificial neuron.\relax }{figure.caption.14}{}}
\citation{heaton}
\citation{heaton}
\citation{heaton}
\@writefile{brf}{\backcite{heaton}{{29}{4.1.1}{figure.caption.14}}}
\@writefile{lof}{\contentsline {figure}{\numberline {4.3}{\ignorespaces An Artificial neuron supported by NEAT. \cite  {heaton}\relax }}{29}{figure.caption.15}}
\@writefile{brf}{\backcite{heaton}{{29}{4.3}{figure.caption.15}}}
\newlabel{fig:reneuron}{{4.3}{29}{An Artificial neuron supported by NEAT. \cite {heaton}\relax }{figure.caption.15}{}}
\@writefile{toc}{\contentsline {subsubsection}{\numberline {4.1.1.1}Training Algorithms}{30}{subsubsection.4.1.1.1}}
\@writefile{lol}{\contentsline {listing}{\numberline {2}{\ignorespaces Sample JSON Data exchanged between Node and Aggregator.\relax }}{30}{listing.2}}
\newlabel{json-example}{{2}{30}{Sample JSON Data exchanged between Node and Aggregator.\relax }{listing.2}{}}
\@writefile{toc}{\contentsline {subsection}{\numberline {4.1.2}Client's Architecture}{30}{subsection.4.1.2}}
\@writefile{lof}{\contentsline {figure}{\numberline {4.4}{\ignorespaces A physical Sensor node (Arduino and components).\relax }}{31}{figure.caption.16}}
\newlabel{fig:phyclient}{{4.4}{31}{A physical Sensor node (Arduino and components).\relax }{figure.caption.16}{}}
\@writefile{toc}{\contentsline {section}{\numberline {4.2}Summary}{31}{section.4.2}}
\FN@pp@footnotehinttrue 
\@writefile{lot}{\contentsline {table}{\numberline {4.1}{\ignorespaces Sensor Data Mapping\relax }}{32}{table.caption.17}}
\newlabel{tab:sensormapping}{{4.1}{32}{Sensor Data Mapping\relax }{table.caption.17}{}}
\@setckpt{3/contributions}{
\setcounter{page}{33}
\setcounter{equation}{0}
\setcounter{enumi}{7}
\setcounter{enumii}{0}
\setcounter{enumiii}{0}
\setcounter{enumiv}{0}
\setcounter{footnote}{0}
\setcounter{mpfootnote}{0}
\setcounter{part}{0}
\setcounter{chapter}{4}
\setcounter{section}{2}
\setcounter{subsection}{0}
\setcounter{subsubsection}{0}
\setcounter{paragraph}{0}
\setcounter{subparagraph}{0}
\setcounter{figure}{4}
\setcounter{table}{1}
\setcounter{ContinuedFloat}{0}
\setcounter{pp@next@reset}{1}
\setcounter{@fnserial}{0}
\setcounter{NAT@ctr}{0}
\setcounter{Item}{7}
\setcounter{Hfootnote}{0}
\setcounter{bookmark@seq@number}{37}
\setcounter{parentequation}{0}
\setcounter{lstnumber}{1}
\setcounter{FancyVerbLine}{6}
\setcounter{float@type}{16}
\setcounter{listing}{2}
\setcounter{AlgoLine}{0}
\setcounter{algocfline}{0}
\setcounter{algocfproc}{0}
\setcounter{algocf}{0}
\setcounter{section@level}{1}
\setcounter{lstlisting}{0}
}
