\relax 
\providecommand\hyper@newdestlabel[2]{}
\citation{kumar:cloud}
\citation{klein}
\citation{predictionornot}
\citation{Li:arima}
\citation{Lauris:2013}
\citation{Lauris:2013}
\FN@pp@footnotehinttrue 
\@writefile{toc}{\contentsline {chapter}{\numberline {3}Problem Statement}{24}{chapter.3}}
\@writefile{lof}{\addvspace {10\p@ }}
\@writefile{lot}{\addvspace {10\p@ }}
\@writefile{loa}{\addvspace {10\p@ }}
\@writefile{toc}{\contentsline {section}{\numberline {3.1}Research Question}{24}{section.3.1}}
\citation{Lauris:2013}
\@writefile{brf}{\backcite{kumar:cloud}{{25}{3.1}{section.3.1}}}
\@writefile{brf}{\backcite{klein}{{25}{3.1}{section.3.1}}}
\@writefile{brf}{\backcite{predictionornot}{{25}{3.1}{section.3.1}}}
\@writefile{brf}{\backcite{Li:arima}{{25}{3.1}{section.3.1}}}
\@writefile{brf}{\backcite{Lauris:2013}{{25}{3.1}{section.3.1}}}
\@writefile{brf}{\backcite{Lauris:2013}{{25}{3.1}{section.3.1}}}
\@writefile{brf}{\backcite{Lauris:2013}{{25}{3.1}{section.3.1}}}
\@writefile{toc}{\contentsline {section}{\numberline {3.2}Summary}{25}{section.3.2}}
\FN@pp@footnotehinttrue 
\@setckpt{3/researchquestion}{
\setcounter{page}{26}
\setcounter{equation}{0}
\setcounter{enumi}{0}
\setcounter{enumii}{0}
\setcounter{enumiii}{0}
\setcounter{enumiv}{0}
\setcounter{footnote}{0}
\setcounter{mpfootnote}{0}
\setcounter{part}{0}
\setcounter{chapter}{3}
\setcounter{section}{2}
\setcounter{subsection}{0}
\setcounter{subsubsection}{0}
\setcounter{paragraph}{0}
\setcounter{subparagraph}{0}
\setcounter{figure}{0}
\setcounter{table}{0}
\setcounter{ContinuedFloat}{0}
\setcounter{pp@next@reset}{1}
\setcounter{@fnserial}{0}
\setcounter{NAT@ctr}{0}
\setcounter{Item}{0}
\setcounter{Hfootnote}{0}
\setcounter{bookmark@seq@number}{31}
\setcounter{parentequation}{0}
\setcounter{lstnumber}{1}
\setcounter{FancyVerbLine}{14}
\setcounter{float@type}{16}
\setcounter{listing}{1}
\setcounter{AlgoLine}{0}
\setcounter{algocfline}{0}
\setcounter{algocfproc}{0}
\setcounter{algocf}{0}
\setcounter{section@level}{1}
\setcounter{lstlisting}{0}
}
