\relax 
\providecommand\hyper@newdestlabel[2]{}
\FN@pp@footnotehinttrue 
\@writefile{toc}{\contentsline {chapter}{\numberline {5}Case Studies}{33}{chapter.5}}
\@writefile{lof}{\addvspace {10\p@ }}
\@writefile{lot}{\addvspace {10\p@ }}
\@writefile{loa}{\addvspace {10\p@ }}
\@writefile{toc}{\contentsline {section}{\numberline {5.1}HTTP Communication}{33}{section.5.1}}
\@writefile{toc}{\contentsline {subsection}{\numberline {5.1.1}HTTP communication without prediction logic}{33}{subsection.5.1.1}}
\@writefile{toc}{\contentsline {subsection}{\numberline {5.1.2}HTTP communication with Linear regression and Fuzzy Logic}{33}{subsection.5.1.2}}
\@writefile{lof}{\contentsline {figure}{\numberline {5.1}{\ignorespaces HTTP communication without logic.\relax }}{34}{figure.caption.18}}
\newlabel{fig:http}{{5.1}{34}{HTTP communication without logic.\relax }{figure.caption.18}{}}
\@writefile{lot}{\contentsline {table}{\numberline {5.1}{\ignorespaces Duration for normal HTTP with a 9v battery\relax }}{34}{table.caption.19}}
\newlabel{tab:httptab}{{5.1}{34}{Duration for normal HTTP with a 9v battery\relax }{table.caption.19}{}}
\newlabel{equ:linear}{{5.1}{34}{HTTP communication with Linear regression and Fuzzy Logic}{equation.5.1.1}{}}
\newlabel{equ:predictability}{{5.2}{34}{HTTP communication with Linear regression and Fuzzy Logic}{equation.5.1.2}{}}
\@writefile{lot}{\contentsline {table}{\numberline {5.2}{\ignorespaces Duration for HTTP communication with Linear Regression and Fuzzy Logic with a 9v battery\relax }}{35}{table.caption.21}}
\newlabel{tab:httpl}{{5.2}{35}{Duration for HTTP communication with Linear Regression and Fuzzy Logic with a 9v battery\relax }{table.caption.21}{}}
\@writefile{lof}{\contentsline {figure}{\numberline {5.2}{\ignorespaces HTTP communication with Linear Regression and Fuzzy Logic.\relax }}{36}{figure.caption.20}}
\newlabel{fig:httpl}{{5.2}{36}{HTTP communication with Linear Regression and Fuzzy Logic.\relax }{figure.caption.20}{}}
\@writefile{lot}{\contentsline {table}{\numberline {5.3}{\ignorespaces Duration for XMPP with a 9v battery\relax }}{36}{table.caption.22}}
\newlabel{tab:httpl}{{5.3}{36}{Duration for XMPP with a 9v battery\relax }{table.caption.22}{}}
\@writefile{toc}{\contentsline {section}{\numberline {5.2}XMPP Communication}{36}{section.5.2}}
\@writefile{lof}{\contentsline {figure}{\numberline {5.3}{\ignorespaces XMPP squence diagram.\relax }}{37}{figure.caption.23}}
\newlabel{fig:httpl}{{5.3}{37}{XMPP squence diagram.\relax }{figure.caption.23}{}}
\@writefile{toc}{\contentsline {section}{\numberline {5.3}HTTP and Neural Network Communication}{37}{section.5.3}}
\@writefile{toc}{\contentsline {subsection}{\numberline {5.3.1}Training}{37}{subsection.5.3.1}}
\@writefile{toc}{\contentsline {subsubsection}{\numberline {5.3.1.1}Basic}{37}{subsubsection.5.3.1.1}}
\@writefile{lot}{\contentsline {table}{\numberline {5.4}{\ignorespaces RMSE Values for Resilient algorithm\relax }}{38}{table.caption.24}}
\newlabel{tab:basictable}{{5.4}{38}{RMSE Values for Resilient algorithm\relax }{table.caption.24}{}}
\@writefile{toc}{\contentsline {subsubsection}{\numberline {5.3.1.2}NEAT}{38}{subsubsection.5.3.1.2}}
\citation{svmparam}
\@writefile{lot}{\contentsline {table}{\numberline {5.5}{\ignorespaces RMSE Values for LMA\relax }}{39}{table.caption.25}}
\newlabel{tab:basictablelma}{{5.5}{39}{RMSE Values for LMA\relax }{table.caption.25}{}}
\@writefile{toc}{\contentsline {subsubsection}{\numberline {5.3.1.3}SVM backed Neural Network}{39}{subsubsection.5.3.1.3}}
\@writefile{brf}{\backcite{svmparam}{{39}{5.3.1.3}{subsubsection.5.3.1.3}}}
\newlabel{equ:eps}{{5.3}{39}{SVM backed Neural Network}{equation.5.3.3}{}}
\newlabel{equ:c}{{5.4}{39}{SVM backed Neural Network}{equation.5.3.4}{}}
\@writefile{lot}{\contentsline {table}{\numberline {5.6}{\ignorespaces RMSE Values for NEAT\relax }}{40}{table.caption.26}}
\newlabel{tab:neattable}{{5.6}{40}{RMSE Values for NEAT\relax }{table.caption.26}{}}
\@writefile{toc}{\contentsline {section}{\numberline {5.4}Validation}{40}{section.5.4}}
\@writefile{lot}{\contentsline {table}{\numberline {5.7}{\ignorespaces RMSE Values for SVM\relax }}{41}{table.caption.27}}
\newlabel{tab:svmrmse1}{{5.7}{41}{RMSE Values for SVM\relax }{table.caption.27}{}}
\@writefile{lot}{\contentsline {table}{\numberline {5.8}{\ignorespaces Duration for SVM substituted into the network.\relax }}{41}{table.caption.29}}
\newlabel{tab:timedresults}{{5.8}{41}{Duration for SVM substituted into the network.\relax }{table.caption.29}{}}
\@writefile{toc}{\contentsline {section}{\numberline {5.5}Summary}{41}{section.5.5}}
\@writefile{lof}{\contentsline {figure}{\numberline {5.4}{\ignorespaces Aggregator module with neural network\relax }}{42}{figure.caption.28}}
\newlabel{fig:httpn}{{5.4}{42}{Aggregator module with neural network\relax }{figure.caption.28}{}}
\FN@pp@footnotehinttrue 
\@setckpt{4/casestudies}{
\setcounter{page}{43}
\setcounter{equation}{4}
\setcounter{enumi}{3}
\setcounter{enumii}{3}
\setcounter{enumiii}{0}
\setcounter{enumiv}{0}
\setcounter{footnote}{0}
\setcounter{mpfootnote}{0}
\setcounter{part}{0}
\setcounter{chapter}{5}
\setcounter{section}{5}
\setcounter{subsection}{0}
\setcounter{subsubsection}{3}
\setcounter{paragraph}{0}
\setcounter{subparagraph}{0}
\setcounter{figure}{4}
\setcounter{table}{8}
\setcounter{ContinuedFloat}{0}
\setcounter{pp@next@reset}{1}
\setcounter{@fnserial}{0}
\setcounter{NAT@ctr}{0}
\setcounter{Item}{21}
\setcounter{Hfootnote}{0}
\setcounter{bookmark@seq@number}{49}
\setcounter{parentequation}{0}
\setcounter{lstnumber}{1}
\setcounter{FancyVerbLine}{6}
\setcounter{float@type}{16}
\setcounter{listing}{2}
\setcounter{AlgoLine}{0}
\setcounter{algocfline}{0}
\setcounter{algocfproc}{0}
\setcounter{algocf}{0}
\setcounter{section@level}{1}
\setcounter{lstlisting}{0}
}
