\relax 
\providecommand\hyper@newdestlabel[2]{}
\providecommand\HyperFirstAtBeginDocument{\AtBeginDocument}
\HyperFirstAtBeginDocument{\ifx\hyper@anchor\@undefined
\global\let\oldcontentsline\contentsline
\gdef\contentsline#1#2#3#4{\oldcontentsline{#1}{#2}{#3}}
\global\let\oldnewlabel\newlabel
\gdef\newlabel#1#2{\newlabelxx{#1}#2}
\gdef\newlabelxx#1#2#3#4#5#6{\oldnewlabel{#1}{{#2}{#3}}}
\AtEndDocument{\ifx\hyper@anchor\@undefined
\let\contentsline\oldcontentsline
\let\newlabel\oldnewlabel
\fi}
\fi}
\global\let\hyper@last\relax 
\gdef\HyperFirstAtBeginDocument#1{#1}
\providecommand\HyField@AuxAddToFields[1]{}
\providecommand\HyField@AuxAddToCoFields[2]{}
\@input{title_page/stardard_page.aux}
\FN@pp@footnotehinttrue 
\select@language{english}
\@writefile{toc}{\select@language{english}}
\@writefile{lof}{\select@language{english}}
\@writefile{lot}{\select@language{english}}
\providecommand {\FN@pp@footnotehinttrue }{}
\providecommand {\FN@pp@footnote@aux }[2]{}
\FN@pp@footnotehinttrue 
\@input{0_frontmatter/abstract.aux}
\FN@pp@footnotehinttrue 
\FN@pp@footnotehinttrue 
\FN@pp@footnotehinttrue 
\citation{arduino}
\citation{tinkerkit}
\citation{simoes2010introfl}
\citation{Mendel95FLS}
\citation{simoes2010introfl}
\citation{}
\citation{heaton}
\@writefile{toc}{\contentsline {chapter}{List of Figures}{vi}{chapter*.2}}
\@writefile{brf}{\backcite{arduino}{{vi}{(document)}{Doc-Start}}}
\@writefile{brf}{\backcite{tinkerkit}{{vi}{(document)}{Doc-Start}}}
\@writefile{brf}{\backcite{simoes2010introfl}{{vi}{(document)}{Doc-Start}}}
\@writefile{brf}{\backcite{Mendel95FLS}{{vi}{(document)}{Doc-Start}}}
\@writefile{brf}{\backcite{simoes2010introfl}{{vi}{(document)}{Doc-Start}}}
\@writefile{brf}{\backcite{heaton}{{vi}{(document)}{Doc-Start}}}
\FN@pp@footnotehinttrue 
\@writefile{toc}{\contentsline {chapter}{List of Tables}{vii}{chapter*.3}}
\FN@pp@footnotehinttrue 
\@input{0_frontmatter/acknowledgement.aux}
\FN@pp@footnotehinttrue 
\@input{1_introduction/introduction.aux}
\FN@pp@footnotehinttrue 
\@input{2/stateofart.aux}
\FN@pp@footnotehinttrue 
\@input{3/researchquestion.aux}
\FN@pp@footnotehinttrue 
\@input{3/contributions.aux}
\FN@pp@footnotehinttrue 
\@input{4/casestudies.aux}
\FN@pp@footnotehinttrue 
\@input{6/relatedwork.aux}
\FN@pp@footnotehinttrue 
\@input{6/futureresearch.aux}
\FN@pp@footnotehinttrue 
\@input{7/eestiabstract.aux}
\FN@pp@footnotehinttrue 
\@input{7/license.aux}
\FN@pp@footnotehinttrue 
\bibstyle{elsarticle-num}
\bibdata{thesis}
\bibcite{arduino}{{1}{}{{}}{{}}}
\bibcite{tinkerkit}{{2}{}{{}}{{}}}
\bibcite{simoes2010introfl}{{3}{}{{}}{{}}}
\bibcite{Mendel95FLS}{{4}{}{{}}{{}}}
\bibcite{heaton}{{5}{}{{}}{{}}}
\bibcite{Atzori:2010}{{6}{}{{}}{{}}}
\bibcite{karel:2012}{{7}{}{{}}{{}}}
\bibcite{Lauris:2013}{{8}{}{{}}{{}}}
\bibcite{ieee94:IST}{{9}{}{{}}{{}}}
\bibcite{karfuture}{{10}{}{{}}{{}}}
\bibcite{wiki:timeseries}{{11}{}{{}}{{}}}
\bibcite{wiki:fuzzylogic}{{12}{}{{}}{{}}}
\bibcite{Boser:1992:TAO:130385.130401}{{13}{}{{}}{{}}}
\bibcite{Cortes:1995:SN:218919.218929}{{14}{}{{}}{{}}}
\bibcite{mag:cloudcomputing}{{15}{}{{}}{{}}}
\bibcite{wiki:ginternetusage}{{16}{}{{}}{{}}}
\bibcite{mag:saas}{{17}{}{{}}{{}}}
\bibcite{kumar:cloud}{{18}{}{{}}{{}}}
\bibcite{klein}{{19}{}{{}}{{}}}
\bibcite{predictionornot}{{20}{}{{}}{{}}}
\bibcite{Li:arima}{{21}{}{{}}{{}}}
\bibcite{fa:data}{{22}{}{{}}{{}}}
\bibcite{fa:forecasting}{{23}{}{{}}{{}}}
\bibcite{liwang}{{24}{}{{}}{{}}}
\bibcite{svmparam}{{25}{}{{}}{{}}}
\bibcite{ttoo}{{26}{}{{}}{{}}}
\bibcite{stoo}{{27}{}{{}}{{}}}
\FN@pp@footnotehinttrue 
\@writefile{toc}{\contentsline {chapter}{Bibliography}{49}{chapter*.30}}
\bibcite{wiseps}{{28}{}{{}}{{}}}
\bibcite{bbb}{{29}{}{{}}{{}}}
\providecommand\NAT@force@numbers{}\NAT@force@numbers
\FN@pp@footnotehinttrue 
