\relax 
\providecommand\hyper@newdestlabel[2]{}
\citation{arduino}
\citation{arduino}
\citation{arduino}
\FN@pp@footnotehinttrue 
\@writefile{toc}{\contentsline {chapter}{\numberline {2}State of the Art}{6}{chapter.2}}
\@writefile{lof}{\addvspace {10\p@ }}
\@writefile{lot}{\addvspace {10\p@ }}
\@writefile{loa}{\addvspace {10\p@ }}
\@writefile{toc}{\contentsline {section}{\numberline {2.1}Wireless Sensor Networks}{6}{section.2.1}}
\@writefile{lot}{\contentsline {table}{\numberline {2.1}{\ignorespaces Wireless protocols\relax }}{7}{table.caption.4}}
\providecommand*\caption@xref[2]{\@setref\relax\@undefined{#1}}
\newlabel{tab:hresult}{{2.1}{7}{Wireless protocols\relax }{table.caption.4}{}}
\@writefile{toc}{\contentsline {section}{\numberline {2.2}Arduino}{8}{section.2.2}}
\@writefile{brf}{\backcite{arduino}{{8}{2.2}{section.2.2}}}
\@writefile{lof}{\contentsline {figure}{\numberline {2.1}{\ignorespaces Arduino Base board.\cite  {arduino}\relax }}{8}{figure.caption.5}}
\@writefile{brf}{\backcite{arduino}{{8}{2.1}{figure.caption.5}}}
\newlabel{fig:arduino}{{2.1}{8}{Arduino Base board.\cite {arduino}\relax }{figure.caption.5}{}}
\@writefile{toc}{\contentsline {subsection}{\numberline {2.2.1}Arduino software}{9}{subsection.2.2.1}}
\@writefile{lof}{\contentsline {figure}{\numberline {2.2}{\ignorespaces Arduino IDE.\relax }}{9}{figure.caption.6}}
\newlabel{fig:arduinoide}{{2.2}{9}{Arduino IDE.\relax }{figure.caption.6}{}}
\@writefile{toc}{\contentsline {subsection}{\numberline {2.2.2}Arduino Sample source code}{9}{subsection.2.2.2}}
\@writefile{lol}{\contentsline {listing}{\numberline {1}{\ignorespaces VoltageSourceMeasure.ino\relax }}{10}{listing.1}}
\newlabel{lst:voltmeasure}{{1}{10}{VoltageSourceMeasure.ino\relax }{listing.1}{}}
\@writefile{toc}{\contentsline {subsection}{\numberline {2.2.3}Arduino Shields}{10}{subsection.2.2.3}}
\@writefile{toc}{\contentsline {subsubsection}{\numberline {2.2.3.1}Network Shields}{11}{subsubsection.2.2.3.1}}
\@writefile{lof}{\contentsline {figure}{\numberline {2.3}{\ignorespaces Arduino Ethernet Shield.\relax }}{11}{figure.caption.7}}
\newlabel{fig:arduinoEshield}{{2.3}{11}{Arduino Ethernet Shield.\relax }{figure.caption.7}{}}
\citation{tinkerkit}
\citation{tinkerkit}
\citation{ieee94:IST}
\@writefile{toc}{\contentsline {subsubsection}{\numberline {2.2.3.2}Mega Sensor Shield}{12}{subsubsection.2.2.3.2}}
\@writefile{toc}{\contentsline {subsection}{\numberline {2.2.4}Arduino Sensors}{12}{subsection.2.2.4}}
\@writefile{brf}{\backcite{ieee94:IST}{{12}{2.2.4}{subsection.2.2.4}}}
\citation{ieee94:IST}
\@writefile{lof}{\contentsline {figure}{\numberline {2.4}{\ignorespaces Tinkerkit Mega Sensor Shield. \citep  {tinkerkit}\relax }}{13}{figure.caption.8}}
\@writefile{brf}{\backcite{tinkerkit}{{13}{2.4}{figure.caption.8}}}
\newlabel{fig:megashield}{{2.4}{13}{Tinkerkit Mega Sensor Shield. \citep {tinkerkit}\relax }{figure.caption.8}{}}
\@writefile{brf}{\backcite{ieee94:IST}{{13}{2.2.4}{subsection.2.2.4}}}
\citation{simoes2010introfl}
\citation{simoes2010introfl}
\@writefile{toc}{\contentsline {subsection}{\numberline {2.2.5}Arduino WiFly Wireless Module}{14}{subsection.2.2.5}}
\@writefile{toc}{\contentsline {section}{\numberline {2.3}Time Series}{14}{section.2.3}}
\citation{karfuture}
\@writefile{lof}{\contentsline {figure}{\numberline {2.5}{\ignorespaces Sample Temperature time series.\cite  {simoes2010introfl}\relax }}{15}{figure.caption.9}}
\@writefile{brf}{\backcite{simoes2010introfl}{{15}{2.5}{figure.caption.9}}}
\newlabel{fig:timeseries}{{2.5}{15}{Sample Temperature time series.\cite {simoes2010introfl}\relax }{figure.caption.9}{}}
\@writefile{toc}{\contentsline {section}{\numberline {2.4}Time Series Analysis}{15}{section.2.4}}
\@writefile{toc}{\contentsline {subsection}{\numberline {2.4.1}Machine Learning}{15}{subsection.2.4.1}}
\citation{wiki:timeseries}
\citation{wiki:fuzzylogic}
\citation{Mendel95FLS}
\citation{Mendel95FLS}
\citation{Mendel95FLS}
\@writefile{toc}{\contentsline {subsection}{\numberline {2.4.2}Artificial Neural Network}{16}{subsection.2.4.2}}
\@writefile{brf}{\backcite{karfuture}{{16}{2.4.2}{subsection.2.4.2}}}
\@writefile{toc}{\contentsline {subsection}{\numberline {2.4.3}Fuzzy Logic}{16}{subsection.2.4.3}}
\@writefile{brf}{\backcite{wiki:timeseries}{{16}{2.4.3}{subsection.2.4.3}}}
\@writefile{brf}{\backcite{wiki:fuzzylogic}{{16}{2.4.3}{subsection.2.4.3}}}
\@writefile{brf}{\backcite{Mendel95FLS}{{16}{2.4.3}{subsection.2.4.3}}}
\citation{simoes2010introfl}
\citation{simoes2010introfl}
\@writefile{lof}{\contentsline {figure}{\numberline {2.6}{\ignorespaces Fuzzy Logic System \cite  {Mendel95FLS}.\relax }}{17}{figure.caption.10}}
\@writefile{brf}{\backcite{Mendel95FLS}{{17}{2.6}{figure.caption.10}}}
\newlabel{fig:Fuzzy Logic}{{2.6}{17}{Fuzzy Logic System \cite {Mendel95FLS}.\relax }{figure.caption.10}{}}
\@writefile{lof}{\contentsline {figure}{\numberline {2.7}{\ignorespaces Membership Function.\cite  {simoes2010introfl}\relax }}{17}{figure.caption.11}}
\@writefile{brf}{\backcite{simoes2010introfl}{{17}{2.7}{figure.caption.11}}}
\newlabel{fig:membershipfunction}{{2.7}{17}{Membership Function.\cite {simoes2010introfl}\relax }{figure.caption.11}{}}
\citation{}
\citation{}
\citation{Boser:1992:TAO:130385.130401}
\citation{Cortes:1995:SN:218919.218929}
\@writefile{toc}{\contentsline {subsection}{\numberline {2.4.4}Regression Analysis}{18}{subsection.2.4.4}}
\@writefile{toc}{\contentsline {subsection}{\numberline {2.4.5}Support Vector Machines}{18}{subsection.2.4.5}}
\@writefile{lof}{\contentsline {figure}{\numberline {2.8}{\ignorespaces SVM Hyperplane description. \cite  {}\relax }}{19}{figure.caption.12}}
\newlabel{fig:hyperplane}{{2.8}{19}{SVM Hyperplane description. \cite {}\relax }{figure.caption.12}{}}
\@writefile{brf}{\backcite{Boser:1992:TAO:130385.130401}{{19}{2.4.5}{figure.caption.12}}}
\@writefile{brf}{\backcite{Cortes:1995:SN:218919.218929}{{19}{2.4.5}{figure.caption.12}}}
\newlabel{primal}{{2.3}{19}{Support Vector Machines}{equation.2.4.3}{}}
\newlabel{svmqp}{{2.4}{20}{Support Vector Machines}{equation.2.4.4}{}}
\newlabel{primal2}{{2.4.5}{20}{Support Vector Machines}{equation.2.4.4}{}}
\newlabel{primal4}{{2.5}{20}{Support Vector Machines}{}{}}
\newlabel{svr}{{2.5}{20}{Support Vector Machines}{equation.2.4.5}{}}
\citation{mag:cloudcomputing}
\@writefile{toc}{\contentsline {section}{\numberline {2.5}Cloud Computing}{21}{section.2.5}}
\@writefile{brf}{\backcite{mag:cloudcomputing}{{21}{2.5}{section.2.5}}}
\@writefile{toc}{\contentsline {subsection}{\numberline {2.5.1}Cloud services}{21}{subsection.2.5.1}}
\citation{wiki:ginternetusage}
\citation{mag:saas}
\citation{jabb:def}
\@writefile{brf}{\backcite{wiki:ginternetusage}{{22}{2.5.1}{subsection.2.5.1}}}
\@writefile{brf}{\backcite{mag:saas}{{22}{2.5.1}{subsection.2.5.1}}}
\@writefile{toc}{\contentsline {subsection}{\numberline {2.5.2}Jabber}{22}{subsection.2.5.2}}
\@writefile{toc}{\contentsline {section}{\numberline {2.6}Summary}{23}{section.2.6}}
\FN@pp@footnotehinttrue 
\@setckpt{2/stateofart}{
\setcounter{page}{24}
\setcounter{equation}{5}
\setcounter{enumi}{0}
\setcounter{enumii}{0}
\setcounter{enumiii}{0}
\setcounter{enumiv}{0}
\setcounter{footnote}{0}
\setcounter{mpfootnote}{0}
\setcounter{part}{0}
\setcounter{chapter}{2}
\setcounter{section}{6}
\setcounter{subsection}{0}
\setcounter{subsubsection}{0}
\setcounter{paragraph}{0}
\setcounter{subparagraph}{0}
\setcounter{figure}{8}
\setcounter{table}{1}
\setcounter{ContinuedFloat}{0}
\setcounter{pp@next@reset}{1}
\setcounter{@fnserial}{0}
\setcounter{NAT@ctr}{0}
\setcounter{Item}{0}
\setcounter{Hfootnote}{0}
\setcounter{bookmark@seq@number}{28}
\setcounter{parentequation}{0}
\setcounter{lstnumber}{1}
\setcounter{FancyVerbLine}{14}
\setcounter{float@type}{16}
\setcounter{listing}{1}
\setcounter{AlgoLine}{0}
\setcounter{algocfline}{0}
\setcounter{algocfproc}{0}
\setcounter{algocf}{0}
\setcounter{section@level}{1}
\setcounter{lstlisting}{0}
}
