\relax 
\providecommand\hyper@newdestlabel[2]{}
\citation{wiseps}
\citation{bbb}
\FN@pp@footnotehinttrue 
\@writefile{toc}{\contentsline {chapter}{\numberline {7}Conclusions and Future Research Directions}{45}{chapter.7}}
\@writefile{lof}{\addvspace {10\p@ }}
\@writefile{lot}{\addvspace {10\p@ }}
\@writefile{loa}{\addvspace {10\p@ }}
\@writefile{brf}{\backcite{wiseps}{{45}{7}{chapter.7}}}
\@writefile{brf}{\backcite{bbb}{{45}{7}{chapter.7}}}
\FN@pp@footnotehinttrue 
\@setckpt{6/futureresearch}{
\setcounter{page}{47}
\setcounter{equation}{0}
\setcounter{enumi}{3}
\setcounter{enumii}{3}
\setcounter{enumiii}{0}
\setcounter{enumiv}{0}
\setcounter{footnote}{0}
\setcounter{mpfootnote}{0}
\setcounter{part}{0}
\setcounter{chapter}{7}
\setcounter{section}{0}
\setcounter{subsection}{0}
\setcounter{subsubsection}{3}
\setcounter{paragraph}{0}
\setcounter{subparagraph}{0}
\setcounter{figure}{0}
\setcounter{table}{0}
\setcounter{ContinuedFloat}{0}
\setcounter{pp@next@reset}{1}
\setcounter{@fnserial}{0}
\setcounter{NAT@ctr}{0}
\setcounter{Item}{21}
\setcounter{Hfootnote}{0}
\setcounter{bookmark@seq@number}{51}
\setcounter{parentequation}{0}
\setcounter{lstnumber}{1}
\setcounter{FancyVerbLine}{6}
\setcounter{float@type}{16}
\setcounter{listing}{2}
\setcounter{AlgoLine}{0}
\setcounter{algocfline}{0}
\setcounter{algocfproc}{0}
\setcounter{algocf}{0}
\setcounter{section@level}{1}
\setcounter{lstlisting}{0}
}
