\relax 
\providecommand\hyper@newdestlabel[2]{}
\citation{liwang}
\citation{fa:forecasting}
\citation{ttoo}
\citation{stoo}
\citation{fa:forecasting}
\citation{fa:forecasting}
\citation{fa:data}
\FN@pp@footnotehinttrue 
\@writefile{toc}{\contentsline {chapter}{\numberline {6}Related Work}{43}{chapter.6}}
\@writefile{lof}{\addvspace {10\p@ }}
\@writefile{lot}{\addvspace {10\p@ }}
\@writefile{loa}{\addvspace {10\p@ }}
\@writefile{brf}{\backcite{liwang}{{43}{6}{chapter.6}}}
\@writefile{brf}{\backcite{fa:forecasting}{{43}{6}{chapter.6}}}
\@writefile{brf}{\backcite{ttoo}{{43}{6}{chapter.6}}}
\@writefile{brf}{\backcite{stoo}{{43}{6}{chapter.6}}}
\citation{Lauris:2013}
\citation{Lauris:2013}
\@writefile{brf}{\backcite{fa:forecasting}{{44}{6}{chapter.6}}}
\@writefile{brf}{\backcite{fa:forecasting}{{44}{6}{chapter.6}}}
\@writefile{brf}{\backcite{fa:data}{{44}{6}{chapter.6}}}
\@writefile{brf}{\backcite{Lauris:2013}{{44}{6}{chapter.6}}}
\@writefile{brf}{\backcite{Lauris:2013}{{44}{6}{chapter.6}}}
\FN@pp@footnotehinttrue 
\@setckpt{6/relatedwork}{
\setcounter{page}{45}
\setcounter{equation}{0}
\setcounter{enumi}{3}
\setcounter{enumii}{3}
\setcounter{enumiii}{0}
\setcounter{enumiv}{0}
\setcounter{footnote}{0}
\setcounter{mpfootnote}{0}
\setcounter{part}{0}
\setcounter{chapter}{6}
\setcounter{section}{0}
\setcounter{subsection}{0}
\setcounter{subsubsection}{3}
\setcounter{paragraph}{0}
\setcounter{subparagraph}{0}
\setcounter{figure}{0}
\setcounter{table}{0}
\setcounter{ContinuedFloat}{0}
\setcounter{pp@next@reset}{1}
\setcounter{@fnserial}{0}
\setcounter{NAT@ctr}{0}
\setcounter{Item}{21}
\setcounter{Hfootnote}{0}
\setcounter{bookmark@seq@number}{50}
\setcounter{parentequation}{0}
\setcounter{lstnumber}{1}
\setcounter{FancyVerbLine}{6}
\setcounter{float@type}{16}
\setcounter{listing}{2}
\setcounter{AlgoLine}{0}
\setcounter{algocfline}{0}
\setcounter{algocfproc}{0}
\setcounter{algocf}{0}
\setcounter{section@level}{1}
\setcounter{lstlisting}{0}
}
